char id=32   x=473   y=336   width=3     height=23    xoffset=-1    yoffset=0     xadvance=6     page=0  chnl=15
char id=33   x=441   y=336   width=4     height=23    xoffset=2     yoffset=0     xadvance=8     page=0  chnl=15
char id=34   x=286   y=336   width=8     height=23    xoffset=1     yoffset=0     xadvance=10    page=0  chnl=15
char id=35   x=364   y=288   width=12    height=23    xoffset=0     yoffset=0     xadvance=12    page=0  chnl=15
char id=36   x=351   y=288   width=12    height=23    xoffset=0     yoffset=0     xadvance=12    page=0  chnl=15
char id=37   x=112   y=48    width=20    height=23    xoffset=0     yoffset=0     xadvance=20    page=0  chnl=15
char id=38   x=95    y=120   width=18    height=23    xoffset=0     yoffset=0     xadvance=18    page=0  chnl=15
char id=39   x=436   y=336   width=4     height=23    xoffset=0     yoffset=0     xadvance=4     page=0  chnl=15
char id=40   x=277   y=336   width=8     height=23    xoffset=0     yoffset=0     xadvance=8     page=0  chnl=15
char id=41   x=268   y=336   width=8     height=23    xoffset=0     yoffset=0     xadvance=8     page=0  chnl=15
char id=42   x=480   y=312   width=10    height=23    xoffset=1     yoffset=0     xadvance=12    page=0  chnl=15
char id=43   x=465   y=216   width=14    height=23    xoffset=0     yoffset=0     xadvance=13    page=0  chnl=15
char id=44   x=426   y=336   width=4     height=23    xoffset=1     yoffset=0     xadvance=6     page=0  chnl=15
char id=45   x=259   y=336   width=8     height=23    xoffset=0     yoffset=0     xadvance=8     page=0  chnl=15
char id=46   x=507   y=168   width=4     height=23    xoffset=1     yoffset=0     xadvance=6     page=0  chnl=15
char id=47   x=250   y=336   width=8     height=23    xoffset=0     yoffset=0     xadvance=7     page=0  chnl=15
char id=48   x=333   y=264   width=12    height=23    xoffset=0     yoffset=0     xadvance=12    page=0  chnl=15
char id=49   x=205   y=336   width=8     height=23    xoffset=2     yoffset=0     xadvance=12    page=0  chnl=15
char id=50   x=180   y=312   width=11    height=23    xoffset=0     yoffset=0     xadvance=12    page=0  chnl=15
char id=51   x=168   y=312   width=11    height=23    xoffset=0     yoffset=0     xadvance=12    page=0  chnl=15
char id=52   x=359   y=264   width=12    height=23    xoffset=0     yoffset=0     xadvance=12    page=0  chnl=15
char id=53   x=11    y=336   width=10    height=23    xoffset=1     yoffset=0     xadvance=12    page=0  chnl=15
char id=54   x=39    y=288   width=12    height=23    xoffset=0     yoffset=0     xadvance=12    page=0  chnl=15
char id=55   x=52    y=288   width=12    height=23    xoffset=0     yoffset=0     xadvance=12    page=0  chnl=15
char id=56   x=436   y=312   width=10    height=23    xoffset=1     yoffset=0     xadvance=12    page=0  chnl=15
char id=57   x=65    y=288   width=12    height=23    xoffset=0     yoffset=0     xadvance=12    page=0  chnl=15
char id=58   x=431   y=336   width=4     height=23    xoffset=1     yoffset=0     xadvance=7     page=0  chnl=15
char id=59   x=408   y=336   width=5     height=23    xoffset=1     yoffset=0     xadvance=7     page=0  chnl=15
char id=60   x=480   y=216   width=14    height=23    xoffset=0     yoffset=0     xadvance=13    page=0  chnl=15
char id=61   x=495   y=216   width=14    height=23    xoffset=0     yoffset=0     xadvance=13    page=0  chnl=15
char id=62   x=0     y=240   width=14    height=23    xoffset=0     yoffset=0     xadvance=13    page=0  chnl=15
char id=63   x=33    y=336   width=10    height=23    xoffset=0     yoffset=0     xadvance=10    page=0  chnl=15
char id=64   x=454   y=24    width=22    height=23    xoffset=0     yoffset=0     xadvance=22    page=0  chnl=15
char id=65   x=152   y=96    width=18    height=23    xoffset=-1    yoffset=0     xadvance=17    page=0  chnl=15
char id=66   x=102   y=168   width=16    height=23    xoffset=-1    yoffset=0     xadvance=16    page=0  chnl=15
char id=67   x=96    y=192   width=15    height=23    xoffset=0     yoffset=0     xadvance=16    page=0  chnl=15
char id=68   x=38    y=96    width=18    height=23    xoffset=-1    yoffset=0     xadvance=17    page=0  chnl=15
char id=69   x=16    y=192   width=15    height=23    xoffset=0     yoffset=0     xadvance=14    page=0  chnl=15
char id=70   x=144   y=240   width=13    height=23    xoffset=-1    yoffset=0     xadvance=13    page=0  chnl=15
char id=71   x=241   y=120   width=17    height=23    xoffset=0     yoffset=0     xadvance=17    page=0  chnl=15
char id=72   x=19    y=96    width=18    height=23    xoffset=-1    yoffset=0     xadvance=17    page=0  chnl=15
char id=73   x=196   y=336   width=8     height=23    xoffset=0     yoffset=0     xadvance=8     page=0  chnl=15
char id=74   x=348   y=312   width=10    height=23    xoffset=0     yoffset=0     xadvance=9     page=0  chnl=15
char id=75   x=399   y=48    width=19    height=23    xoffset=-1    yoffset=0     xadvance=17    page=0  chnl=15
char id=76   x=34    y=168   width=16    height=23    xoffset=-1    yoffset=0     xadvance=14    page=0  chnl=15
char id=77   x=269   y=24    width=23    height=23    xoffset=-1    yoffset=0     xadvance=21    page=0  chnl=15
char id=78   x=406   y=72    width=18    height=23    xoffset=-1    yoffset=0     xadvance=17    page=0  chnl=15
char id=79   x=259   y=120   width=17    height=23    xoffset=0     yoffset=0     xadvance=17    page=0  chnl=15
char id=80   x=15    y=240   width=14    height=23    xoffset=0     yoffset=0     xadvance=13    page=0  chnl=15
char id=81   x=295   y=120   width=17    height=23    xoffset=0     yoffset=0     xadvance=17    page=0  chnl=15
char id=82   x=197   y=72    width=18    height=23    xoffset=-1    yoffset=0     xadvance=16    page=0  chnl=15
char id=83   x=12    y=312   width=11    height=23    xoffset=1     yoffset=0     xadvance=13    page=0  chnl=15
char id=84   x=30    y=240   width=14    height=23    xoffset=0     yoffset=0     xadvance=14    page=0  chnl=15
char id=85   x=114   y=96    width=18    height=23    xoffset=-1    yoffset=0     xadvance=17    page=0  chnl=15
char id=86   x=95    y=96    width=18    height=23    xoffset=0     yoffset=0     xadvance=17    page=0  chnl=15
char id=87   x=25    y=24    width=24    height=23    xoffset=0     yoffset=0     xadvance=22    page=0  chnl=15
char id=88   x=319   y=48    width=19    height=23    xoffset=-1    yoffset=0     xadvance=17    page=0  chnl=15
char id=89   x=331   y=120   width=17    height=23    xoffset=0     yoffset=0     xadvance=17    page=0  chnl=15
char id=90   x=45    y=240   width=14    height=23    xoffset=0     yoffset=0     xadvance=14    page=0  chnl=15
char id=91   x=304   y=336   width=7     height=23    xoffset=1     yoffset=0     xadvance=8     page=0  chnl=15
char id=92   x=160   y=336   width=8     height=23    xoffset=-1    yoffset=0     xadvance=7     page=0  chnl=15
char id=93   x=320   y=336   width=7     height=23    xoffset=0     yoffset=0     xadvance=8     page=0  chnl=15
char id=94   x=108   y=312   width=11    height=23    xoffset=0     yoffset=0     xadvance=11    page=0  chnl=15
char id=95   x=368   y=192   width=14    height=23    xoffset=-1    yoffset=0     xadvance=12    page=0  chnl=15
char id=96   x=414   y=336   width=5     height=23    xoffset=1     yoffset=0     xadvance=8     page=0  chnl=15
char id=97   x=437   y=264   width=12    height=23    xoffset=0     yoffset=0     xadvance=10    page=0  chnl=15
char id=98   x=489   y=264   width=12    height=23    xoffset=0     yoffset=0     xadvance=12    page=0  chnl=15
char id=99   x=96    y=312   width=11    height=23    xoffset=0     yoffset=0     xadvance=10    page=0  chnl=15
char id=100  x=56    y=264   width=13    height=23    xoffset=0     yoffset=0     xadvance=12    page=0  chnl=15
char id=101  x=84    y=312   width=11    height=23    xoffset=0     yoffset=0     xadvance=10    page=0  chnl=15
char id=102  x=72    y=312   width=11    height=23    xoffset=0     yoffset=0     xadvance=8     page=0  chnl=15
char id=103  x=156   y=288   width=12    height=23    xoffset=0     yoffset=0     xadvance=12    page=0  chnl=15
char id=104  x=383   y=192   width=14    height=23    xoffset=-1    yoffset=0     xadvance=12    page=0  chnl=15
char id=105  x=374   y=336   width=6     height=23    xoffset=0     yoffset=0     xadvance=7     page=0  chnl=15
char id=106  x=503   y=192   width=8     height=23    xoffset=-3    yoffset=0     xadvance=7     page=0  chnl=15
char id=107  x=398   y=192   width=14    height=23    xoffset=-1    yoffset=0     xadvance=12    page=0  chnl=15
char id=108  x=381   y=336   width=6     height=23    xoffset=0     yoffset=0     xadvance=7     page=0  chnl=15
char id=109  x=20    y=72    width=19    height=23    xoffset=-1    yoffset=0     xadvance=18    page=0  chnl=15
char id=110  x=413   y=192   width=14    height=23    xoffset=-1    yoffset=0     xadvance=12    page=0  chnl=15
char id=111  x=169   y=288   width=12    height=23    xoffset=0     yoffset=0     xadvance=12    page=0  chnl=15
char id=112  x=168   y=264   width=13    height=23    xoffset=-1    yoffset=0     xadvance=12    page=0  chnl=15
char id=113  x=182   y=264   width=13    height=23    xoffset=0     yoffset=0     xadvance=12    page=0  chnl=15
char id=114  x=381   y=312   width=10    height=23    xoffset=-1    yoffset=0     xadvance=8     page=0  chnl=15
char id=115  x=104   y=336   width=9     height=23    xoffset=0     yoffset=0     xadvance=9     page=0  chnl=15
char id=116  x=114   y=336   width=9     height=23    xoffset=-1    yoffset=0     xadvance=7     page=0  chnl=15
char id=117  x=428   y=192   width=14    height=23    xoffset=-1    yoffset=0     xadvance=12    page=0  chnl=15
char id=118  x=443   y=192   width=14    height=23    xoffset=-1    yoffset=0     xadvance=12    page=0  chnl=15
char id=119  x=359   y=48    width=19    height=23    xoffset=-1    yoffset=0     xadvance=17    page=0  chnl=15
char id=120  x=458   y=192   width=14    height=23    xoffset=-1    yoffset=0     xadvance=12    page=0  chnl=15
char id=121  x=224   y=264   width=13    height=23    xoffset=-1    yoffset=0     xadvance=12    page=0  chnl=15
char id=122  x=501   y=72    width=10    height=23    xoffset=0     yoffset=0     xadvance=10    page=0  chnl=15
char id=123  x=151   y=336   width=8     height=23    xoffset=3     yoffset=0     xadvance=11    page=0  chnl=15
char id=124  x=465   y=336   width=3     height=23    xoffset=1     yoffset=0     xadvance=5     page=0  chnl=15
char id=125  x=44    y=336   width=9     height=23    xoffset=1     yoffset=0     xadvance=11    page=0  chnl=15
char id=126  x=196   y=264   width=13    height=23    xoffset=0     yoffset=0     xadvance=13    page=0  chnl=15
char id=1040 x=0     y=120   width=18    height=23    xoffset=-1    yoffset=0     xadvance=17    page=0  chnl=15
char id=1041 x=135   y=216   width=14    height=23    xoffset=0     yoffset=0     xadvance=14    page=0  chnl=15
char id=1042 x=340   y=168   width=16    height=23    xoffset=-1    yoffset=0     xadvance=16    page=0  chnl=15
char id=1043 x=112   y=192   width=15    height=23    xoffset=-1    yoffset=0     xadvance=14    page=0  chnl=15
char id=1044 x=357   y=168   width=16    height=23    xoffset=0     yoffset=0     xadvance=16    page=0  chnl=15
char id=1045 x=144   y=192   width=15    height=23    xoffset=0     yoffset=0     xadvance=14    page=0  chnl=15
char id=1046 x=417   y=0     width=24    height=23    xoffset=-1    yoffset=0     xadvance=21    page=0  chnl=15
char id=1047 x=411   y=264   width=12    height=23    xoffset=0     yoffset=0     xadvance=12    page=0  chnl=15
char id=1048 x=38    y=120   width=18    height=23    xoffset=-1    yoffset=0     xadvance=17    page=0  chnl=15
char id=1049 x=57    y=120   width=18    height=23    xoffset=-1    yoffset=0     xadvance=17    page=0  chnl=15
char id=1050 x=414   y=144   width=17    height=23    xoffset=-1    yoffset=0     xadvance=16    page=0  chnl=15
char id=1051 x=408   y=168   width=16    height=23    xoffset=0     yoffset=0     xadvance=16    page=0  chnl=15
char id=1052 x=173   y=24    width=23    height=23    xoffset=-1    yoffset=0     xadvance=21    page=0  chnl=15
char id=1053 x=209   y=96    width=18    height=23    xoffset=-1    yoffset=0     xadvance=17    page=0  chnl=15
char id=1054 x=223   y=120   width=17    height=23    xoffset=0     yoffset=0     xadvance=17    page=0  chnl=15
char id=1055 x=171   y=96    width=18    height=23    xoffset=-1    yoffset=0     xadvance=17    page=0  chnl=15
char id=1056 x=150   y=216   width=14    height=23    xoffset=0     yoffset=0     xadvance=13    page=0  chnl=15
char id=1057 x=208   y=192   width=15    height=23    xoffset=0     yoffset=0     xadvance=16    page=0  chnl=15
char id=1058 x=165   y=216   width=14    height=23    xoffset=0     yoffset=0     xadvance=14    page=0  chnl=15
char id=1059 x=367   y=120   width=17    height=23    xoffset=0     yoffset=0     xadvance=17    page=0  chnl=15
char id=1060 x=159   y=72    width=18    height=23    xoffset=0     yoffset=0     xadvance=19    page=0  chnl=15
char id=1061 x=0     y=72    width=19    height=23    xoffset=-1    yoffset=0     xadvance=17    page=0  chnl=15
char id=1062 x=273   y=72    width=18    height=23    xoffset=-1    yoffset=0     xadvance=17    page=0  chnl=15
char id=1063 x=221   y=168   width=16    height=23    xoffset=0     yoffset=0     xadvance=15    page=0  chnl=15
char id=1064 x=237   y=0     width=25    height=23    xoffset=-1    yoffset=0     xadvance=24    page=0  chnl=15
char id=1065 x=315   y=0     width=25    height=23    xoffset=-1    yoffset=0     xadvance=24    page=0  chnl=15
char id=1066 x=144   y=144   width=17    height=23    xoffset=0     yoffset=0     xadvance=17    page=0  chnl=15
char id=1067 x=316   y=24    width=22    height=23    xoffset=-1    yoffset=0     xadvance=21    page=0  chnl=15
char id=1068 x=48    y=192   width=15    height=23    xoffset=-1    yoffset=0     xadvance=14    page=0  chnl=15
char id=1069 x=255   y=168   width=16    height=23    xoffset=0     yoffset=0     xadvance=16    page=0  chnl=15
char id=1070 x=210   y=0     width=26    height=23    xoffset=-1    yoffset=0     xadvance=24    page=0  chnl=15
char id=1071 x=439   y=120   width=17    height=23    xoffset=-1    yoffset=0     xadvance=16    page=0  chnl=15
char id=1072 x=385   y=264   width=12    height=23    xoffset=0     yoffset=0     xadvance=10    page=0  chnl=15
char id=1073 x=416   y=288   width=12    height=23    xoffset=0     yoffset=0     xadvance=12    page=0  chnl=15
char id=1074 x=252   y=312   width=11    height=23    xoffset=0     yoffset=0     xadvance=11    page=0  chnl=15
char id=1075 x=414   y=312   width=10    height=23    xoffset=0     yoffset=0     xadvance=10    page=0  chnl=15
char id=1076 x=312   y=288   width=12    height=23    xoffset=0     yoffset=0     xadvance=12    page=0  chnl=15
char id=1077 x=0     y=312   width=11    height=23    xoffset=0     yoffset=0     xadvance=10    page=0  chnl=15
char id=1078 x=277   y=120   width=17    height=23    xoffset=0     yoffset=0     xadvance=16    page=0  chnl=15
char id=1079 x=502   y=264   width=9     height=23    xoffset=0     yoffset=0     xadvance=9     page=0  chnl=15
char id=1080 x=256   y=240   width=13    height=23    xoffset=0     yoffset=0     xadvance=13    page=0  chnl=15
char id=1081 x=238   y=264   width=13    height=23    xoffset=0     yoffset=0     xadvance=13    page=0  chnl=15
char id=1082 x=186   y=240   width=13    height=23    xoffset=0     yoffset=0     xadvance=11    page=0  chnl=15
char id=1083 x=450   y=264   width=12    height=23    xoffset=0     yoffset=0     xadvance=12    page=0  chnl=15
char id=1084 x=192   y=192   width=15    height=23    xoffset=0     yoffset=0     xadvance=15    page=0  chnl=15
char id=1085 x=396   y=240   width=13    height=23    xoffset=0     yoffset=0     xadvance=13    page=0  chnl=15
char id=1086 x=499   y=48    width=12    height=23    xoffset=0     yoffset=0     xadvance=12    page=0  chnl=15
char id=1087 x=466   y=240   width=13    height=23    xoffset=0     yoffset=0     xadvance=13    page=0  chnl=15
char id=1088 x=210   y=264   width=13    height=23    xoffset=-1    yoffset=0     xadvance=12    page=0  chnl=15
char id=1089 x=491   y=288   width=11    height=23    xoffset=0     yoffset=0     xadvance=10    page=0  chnl=15
char id=1090 x=234   y=288   width=12    height=23    xoffset=-1    yoffset=0     xadvance=10    page=0  chnl=15
char id=1091 x=28    y=264   width=13    height=23    xoffset=-1    yoffset=0     xadvance=12    page=0  chnl=15
char id=1092 x=323   y=168   width=16    height=23    xoffset=0     yoffset=0     xadvance=15    page=0  chnl=15
char id=1093 x=195   y=216   width=14    height=23    xoffset=-1    yoffset=0     xadvance=12    page=0  chnl=15
char id=1094 x=438   y=240   width=13    height=23    xoffset=0     yoffset=0     xadvance=13    page=0  chnl=15
char id=1095 x=284   y=240   width=13    height=23    xoffset=-1    yoffset=0     xadvance=12    page=0  chnl=15
char id=1096 x=304   y=96    width=18    height=23    xoffset=0     yoffset=0     xadvance=18    page=0  chnl=15
char id=1097 x=285   y=96    width=18    height=23    xoffset=0     yoffset=0     xadvance=18    page=0  chnl=15
char id=1098 x=252   y=264   width=13    height=23    xoffset=-1    yoffset=0     xadvance=12    page=0  chnl=15
char id=1099 x=204   y=168   width=16    height=23    xoffset=0     yoffset=0     xadvance=16    page=0  chnl=15
char id=1100 x=276   y=312   width=11    height=23    xoffset=0     yoffset=0     xadvance=11    page=0  chnl=15
char id=1101 x=370   y=312   width=10    height=23    xoffset=0     yoffset=0     xadvance=10    page=0  chnl=15
char id=1102 x=266   y=96    width=18    height=23    xoffset=0     yoffset=0     xadvance=18    page=0  chnl=15
char id=1103 x=429   y=288   width=12    height=23    xoffset=-1    yoffset=0     xadvance=11    page=0  chnl=15